{
  "requestId": "a600efb8-7b30-42fd-98d1-3c574f7e7939",
  //id запроса
  "serviceId": "32088147345015786,4,32088147345065796",
  //идентификатор сервиса, созданного для КОНКРЕТНОЙ операции, берется из ответа CreateServiceRequest
  "productId": "32088147345015786,4,32088147345038789",
  //идентификатор продукта(СЧЕТА) клиента, берется из ответа на запрос TransactionPurseRequest
  "amount": 2000,
  //сумма операции зачисления
  "turnover": "CASHLESS",
  //оборот наличный/безналичный (всегда CASHLESS)
  "operDay": "Dec 20, 2017 12:46:51 PM",
  //текущий ОД, если не открыт - к Соловей Светлана Валерьевна
  "subSystem": "1",
  //код подсистемы (пока ставим 1)
  "reserveId": null,
  //идентификатор зарезервированной суммы (пока ставим null)
  "perform": true
  //тип запроса (false - предварительный, true - боевой). На предварительном идет только расчет операции (никаких изменений по продукту не выполняется).
}
